﻿Series Name,Series Code,Country Name,Country Code,1990 [YR1990],2000 [YR2000],2010 [YR2010],2011 [YR2011],2012 [YR2012],2013 [YR2013],2014 [YR2014],2015 [YR2015],2016 [YR2016],2017 [YR2017],2018 [YR2018],2019 [YR2019]
CO2 emissions (metric tons per capita),EN.ATM.CO2E.PC,Afghanistan,AFG,0.210643419418854,0.0372347810411313,0.289987629819143,0.406424217113203,0.345148782903553,0.310341014879365,0.293946407148718,..,..,..,..,..
CO2 emissions (metric tons per capita),EN.ATM.CO2E.PC,Albania,ALB,1.67810665434977,0.978174680894664,1.57857358391855,1.80371472482914,1.692908325435,1.74921107861166,1.97876331208568,..,..,..,..,..
CO2 emissions (metric tons per capita),EN.ATM.CO2E.PC,Algeria,DZA,2.98810984286616,2.83037996458696,3.31256060218823,3.30557126991506,3.47710809205046,3.52555735779834,3.7355201474105,..,..,..,..,..
CO2 emissions (metric tons per capita),EN.ATM.CO2E.PC,American Samoa,ASM,..,..,..,..,..,..,..,..,..,..,..,..
CO2 emissions (metric tons per capita),EN.ATM.CO2E.PC,Andorra,AND,7.46733566933901,8.01928429423459,6.12259470212791,5.8674101758869,5.91688403071809,5.90177532374279,5.83290621488897,..,..,..,..,..
CO2 emissions (metric tons per capita),EN.ATM.CO2E.PC,Angola,AGO,0.431743614699926,0.581961496322796,1.24409153765549,1.25268084136928,1.33021856719297,1.25377616969393,1.29030677595566,..,..,..,..,..
CO2 emissions (metric tons per capita),EN.ATM.CO2E.PC,Antigua and Barbuda,ATG,4.51572095701126,4.53454535887182,5.95697959740083,5.75196351943352,5.80009733544227,5.72993793435028,5.74441995635358,..,..,..,..,..
CO2 emissions (metric tons per capita),EN.ATM.CO2E.PC,Argentina,ARG,3.43815141220892,3.8549919479614,4.60716374803428,4.64437307038597,4.60917985556416,4.49853999490794,4.78150777487432,..,..,..,..,..
CO2 emissions (metric tons per capita),EN.ATM.CO2E.PC,Armenia,ARM,..,1.12891750073544,1.46561781992195,1.70950183866857,1.97447948827919,1.89704008580942,1.89871937365811,..,..,..,..,..
CO2 emissions (metric tons per capita),EN.ATM.CO2E.PC,Aruba,ABW,26.3745032100275,26.1948752380219,24.6705288731078,24.5075162181761,13.1577223088924,8.35356100776471,8.41006417792511,..,..,..,..,..
CO2 emissions (metric tons per capita),EN.ATM.CO2E.PC,Australia,AUS,15.4528816707784,17.2006098261369,17.7408450531619,17.5388777559057,17.0729046803908,16.0958331735351,15.3887660194467,..,..,..,..,..
CO2 emissions (metric tons per capita),EN.ATM.CO2E.PC,Austria,AUT,7.51324615615048,7.77425973898237,8.07113180231399,7.74813430456944,7.38707716295308,7.36874814486104,6.86986792967669,..,..,..,..,..
CO2 emissions (metric tons per capita),EN.ATM.CO2E.PC,Azerbaijan,AZE,..,3.66627102850185,3.38822587905988,3.64617987716669,3.82487717012357,3.78506883600917,3.93156060898919,..,..,..,..,..
CO2 emissions (metric tons per capita),EN.ATM.CO2E.PC,"Bahamas, The",BHS,7.61385199611276,5.59798490862302,4.65940069081709,5.1908297805477,5.41602215719064,7.63026189646157,6.52006971856257,..,..,..,..,..
CO2 emissions (metric tons per capita),EN.ATM.CO2E.PC,Bahrain,BHR,25.0588549616781,28.0510373737419,23.5855189143014,22.4154039702664,20.5191750715224,23.8112718426742,23.455406320753,..,..,..,..,..
CO2 emissions (metric tons per capita),EN.ATM.CO2E.PC,Bangladesh,BGD,0.150558471528833,0.218311675519784,0.406145623292441,0.424812929970862,0.44703518540601,0.456320609091594,0.473657610012808,..,..,..,..,..
CO2 emissions (metric tons per capita),EN.ATM.CO2E.PC,Barbados,BRB,4.11760355029586,4.37584663830728,5.23799582463466,5.4035662415588,5.18317589002467,5.0949186763092,4.46747652067059,..,..,..,..,..
CO2 emissions (metric tons per capita),EN.ATM.CO2E.PC,Belarus,BLR,..,5.38974529064763,6.64269666046859,6.76251734899356,6.67999158961994,6.73665225121031,6.70195770525782,..,..,..,..,..
CO2 emissions (metric tons per capita),EN.ATM.CO2E.PC,Belgium,BEL,10.6396716729644,11.2296676990611,10.1714652153634,9.05433001058862,8.56287874995543,8.68954309131301,8.32815989783976,..,..,..,..,..
CO2 emissions (metric tons per capita),EN.ATM.CO2E.PC,Belize,BLZ,1.66191242961952,1.60134241756464,1.67165637094373,1.82108001223364,1.41038461538462,1.48498040293305,1.40094123373499,..,..,..,..,..
CO2 emissions (metric tons per capita),EN.ATM.CO2E.PC,Benin,BEN,0.14215759136896,0.232860968567938,0.553283259010318,0.559691697240094,0.562341919951059,0.580952958782511,0.614206089682334,..,..,..,..,..
CO2 emissions (metric tons per capita),EN.ATM.CO2E.PC,Bermuda,BMU,8.46810841789435,8.36199116976372,9.34712241262822,6.87235920946658,7.35686286613784,7.05181458746789,8.83831498794885,..,..,..,..,..
CO2 emissions (metric tons per capita),EN.ATM.CO2E.PC,Bhutan,BTN,0.241793581058168,0.670087864898201,0.711464428310306,1.05784237081313,1.16556558525506,1.2959275623101,1.39222953427828,..,..,..,..,..
CO2 emissions (metric tons per capita),EN.ATM.CO2E.PC,Bolivia,BOL,0.838648580695666,1.31464230629973,1.51298659811974,1.58091390600604,1.81094254628878,1.79447716529936,1.90636431997446,..,..,..,..,..
CO2 emissions (metric tons per capita),EN.ATM.CO2E.PC,Bosnia and Herzegovina,BIH,..,3.67562599035609,5.74176083370755,6.52436389956776,6.17444185419471,6.18791143805194,6.38493881859933,..,..,..,..,..
CO2 emissions (metric tons per capita),EN.ATM.CO2E.PC,Botswana,BWA,2.10030417577225,2.30061387399032,2.35841890589576,2.07239697092689,2.07482823425352,2.53529732329521,3.3674513337553,..,..,..,..,..
CO2 emissions (metric tons per capita),EN.ATM.CO2E.PC,Brazil,BRA,1.4018957697311,1.87644130676787,2.14473639509072,2.22471194448911,2.35854836426703,2.50540878760348,2.61293352087838,..,..,..,..,..
CO2 emissions (metric tons per capita),EN.ATM.CO2E.PC,British Virgin Islands,VGB,3.77414374749843,5.05519176800748,6.2009426494927,6.21547371022988,6.14366492146597,6.10170901653551,6.19831660284936,..,..,..,..,..
CO2 emissions (metric tons per capita),EN.ATM.CO2E.PC,Brunei Darussalam,BRN,23.9391583984292,14.1434274308526,21.1068144275253,24.6274918209343,24.2267631438461,19.295180022798,22.229177902672,..,..,..,..,..
CO2 emissions (metric tons per capita),EN.ATM.CO2E.PC,Bulgaria,BGR,8.5430107903053,5.32803434248386,5.9649002061902,6.71538056004032,6.11945652602394,5.4506959628306,5.87161586934993,..,..,..,..,..
CO2 emissions (metric tons per capita),EN.ATM.CO2E.PC,Burkina Faso,BFA,0.066173050745236,0.0897168507561461,0.125717252121518,0.137496159504925,0.158662722163439,0.179131863449264,0.162018437716738,..,..,..,..,..
CO2 emissions (metric tons per capita),EN.ATM.CO2E.PC,Burundi,BDI,0.0384299783947547,0.0425401297502332,0.0245154169128552,0.0270161901570436,0.0305385427711998,0.0303652226887466,0.0446999922899522,..,..,..,..,..
CO2 emissions (metric tons per capita),EN.ATM.CO2E.PC,Cabo Verde,CPV,0.282118656606007,0.505275720010836,1.13139038757424,1.23493753708485,1.00160519362277,0.974526524773912,0.948113817341959,..,..,..,..,..
CO2 emissions (metric tons per capita),EN.ATM.CO2E.PC,Cambodia,KHM,0.140541960607189,0.162605852505245,0.350245580487489,0.35809012639272,0.369169715625785,0.372890469876481,0.437653585193574,..,..,..,..,..
CO2 emissions (metric tons per capita),EN.ATM.CO2E.PC,Cameroon,CMR,0.147239222661155,0.221240438843892,0.333326909602025,0.2759056705539,0.285198098082658,0.306783420688528,0.308791722441786,..,..,..,..,..
CO2 emissions (metric tons per capita),EN.ATM.CO2E.PC,Canada,CAN,15.7155413764505,17.4146389543283,15.7233450166533,15.6413318280428,14.9062163628498,14.7410812954918,15.1589272191963,..,..,..,..,..
CO2 emissions (metric tons per capita),EN.ATM.CO2E.PC,Cayman Islands,CYM,9.85129582806574,11.0088882585159,9.83526256352343,10.1371851135146,9.08073543878693,8.93315757858907,8.9192085195898,..,..,..,..,..
CO2 emissions (metric tons per capita),EN.ATM.CO2E.PC,Central African Republic,CAF,0.0705510390368307,0.0735328575466559,0.0601864516199626,0.0630719525210948,0.0661254639162477,0.0667785236408208,0.0673571264567361,..,..,..,..,..
CO2 emissions (metric tons per capita),EN.ATM.CO2E.PC,Chad,TCD,0.0239823841085368,0.0210654964889642,0.0432597989179507,0.0436088892239933,0.0478999589354504,0.0529784067439895,0.0534072418467253,..,..,..,..,..
CO2 emissions (metric tons per capita),EN.ATM.CO2E.PC,Channel Islands,CHI,..,..,..,..,..,..,..,..,..,..,..,..
CO2 emissions (metric tons per capita),EN.ATM.CO2E.PC,Chile,CHL,2.5096528165056,3.83350669874432,4.23447610601378,4.59822558011175,4.65362524092192,4.73643108698645,4.64906220009855,..,..,..,..,..
CO2 emissions (metric tons per capita),EN.ATM.CO2E.PC,China,CHN,2.15157090606377,2.69686243322549,6.56052000702696,7.24151541889549,7.42475091638009,7.55721104480691,7.54390764144927,..,..,..,..,..
CO2 emissions (metric tons per capita),EN.ATM.CO2E.PC,Colombia,COL,1.73210730585158,1.46161944920067,1.68443261901656,1.67597670057391,1.73517947668643,1.92753580549154,1.79035682717161,..,..,..,..,..
CO2 emissions (metric tons per capita),EN.ATM.CO2E.PC,Comoros,COM,0.151457504239615,0.189314418362813,0.23394210749146,0.192025124227075,0.197566969805394,0.237376686603597,0.202812783945009,..,..,..,..,..
CO2 emissions (metric tons per capita),EN.ATM.CO2E.PC,"Congo, Dem. Rep.",COD,0.117599887183711,0.0172818113835855,0.0312948635315358,0.0373538204608714,0.0347994639930513,0.0503090389389498,0.0633308890302249,..,..,..,..,..
CO2 emissions (metric tons per capita),EN.ATM.CO2E.PC,"Congo, Rep.",COG,0.504132620653047,0.335345114537232,0.463337538090254,0.513982293797004,0.658567539606909,0.667915559554128,0.653359718672722,..,..,..,..,..
CO2 emissions (metric tons per capita),EN.ATM.CO2E.PC,Costa Rica,CRI,0.947480519697009,1.38170545319824,1.65349857494837,1.67081660042572,1.65672056313993,1.6022464275901,1.61808784926208,..,..,..,..,..
CO2 emissions (metric tons per capita),EN.ATM.CO2E.PC,Cote d'Ivoire,CIV,0.422209050877422,0.412726893061592,0.339322893203363,0.344751435600613,0.431418011482519,0.483786557150751,0.487688034135766,..,..,..,..,..
CO2 emissions (metric tons per capita),EN.ATM.CO2E.PC,Croatia,HRV,..,4.32821192479828,4.69619597772236,4.62762981641453,4.21645564043887,4.12395313661313,3.97380490559031,..,..,..,..,..
CO2 emissions (metric tons per capita),EN.ATM.CO2E.PC,Cuba,CUB,3.14655769606965,2.34427134309927,3.41846867118624,3.20272269275506,3.21189443001355,3.08434756867138,3.08099424581552,..,..,..,..,..
CO2 emissions (metric tons per capita),EN.ATM.CO2E.PC,Curacao,CUW,..,..,..,..,39.445663037189,33.8994032063034,37.7262890532298,..,..,..,..,..
CO2 emissions (metric tons per capita),EN.ATM.CO2E.PC,Cyprus,CYP,5.70655544177977,7.34729510542887,6.92787242992166,6.60157996787079,6.0963423508827,5.19979962687937,5.26046160455096,..,..,..,..,..
CO2 emissions (metric tons per capita),EN.ATM.CO2E.PC,Czech Republic,CZE,..,12.0768890449527,10.6525786177933,10.1854822482433,9.61198587926592,9.384891602576,9.16597837581982,..,..,..,..,..
CO2 emissions (metric tons per capita),EN.ATM.CO2E.PC,Denmark,DNK,9.77069869920651,9.61317555419716,8.40721667045503,7.29638320804399,6.51480084670286,6.86256503195408,5.9357124821143,..,..,..,..,..
CO2 emissions (metric tons per capita),EN.ATM.CO2E.PC,Djibouti,DJI,0.54657366725497,0.475248890722201,0.615387087329415,0.554126048116728,0.595582950136845,0.689150712164593,0.803830216224396,..,..,..,..,..
CO2 emissions (metric tons per capita),EN.ATM.CO2E.PC,Dominica,DMA,0.833184225848138,1.47417085427136,1.96599791190496,1.80981724857578,1.91191432396252,1.85890503548496,1.90868678342829,..,..,..,..,..
CO2 emissions (metric tons per capita),EN.ATM.CO2E.PC,Dominican Republic,DOM,1.29387352116649,2.33621167229999,2.16840109576765,2.16323333547331,2.22769200126756,2.13380483954179,2.11899466984248,..,..,..,..,..
CO2 emissions (metric tons per capita),EN.ATM.CO2E.PC,Ecuador,ECU,1.64480222431305,1.63381034944618,2.42893190426802,2.53280893063795,2.4647935628187,2.61003519725705,2.75326636341217,..,..,..,..,..
CO2 emissions (metric tons per capita),EN.ATM.CO2E.PC,"Egypt, Arab Rep.",EGY,1.35288643921583,2.05321770924242,2.44940070070245,2.56909184690507,2.51171532929487,2.41403693290307,2.23273200470305,..,..,..,..,..
CO2 emissions (metric tons per capita),EN.ATM.CO2E.PC,El Salvador,SLV,0.476633272480356,0.975303060359352,1.04426221422652,1.07047712866198,1.06813421711041,0.994280785244978,0.998428943780015,..,..,..,..,..
CO2 emissions (metric tons per capita),EN.ATM.CO2E.PC,Equatorial Guinea,GNQ,0.157461568556352,0.75011918882314,4.95856148378776,6.20918921055112,4.9607347232472,4.79661245265526,4.76396715246517,..,..,..,..,..
CO2 emissions (metric tons per capita),EN.ATM.CO2E.PC,Eritrea,ERI,..,0.265537319578994,0.161927306505259,0.184834839880372,..,..,..,..,..,..,..,..
CO2 emissions (metric tons per capita),EN.ATM.CO2E.PC,Estonia,EST,..,10.6362516419289,13.5996890666366,14.0167329722872,13.3240003749917,15.0937179674916,14.848819173174,..,..,..,..,..
CO2 emissions (metric tons per capita),EN.ATM.CO2E.PC,Eswatini,SWZ,0.517219911967121,1.18168553909502,0.974572634121466,0.978293558401242,1.11781378093706,1.00207942482741,1.09840450548437,..,..,..,..,..
CO2 emissions (metric tons per capita),EN.ATM.CO2E.PC,Ethiopia,ETH,0.0630209970730581,0.0536000982350963,0.0751475890610818,0.0857152790904745,0.0923403936056533,0.111487261964663,0.118240576234369,..,..,..,..,..
CO2 emissions (metric tons per capita),EN.ATM.CO2E.PC,Faroe Islands,FRO,15.0483986969582,14.7511714988766,13.1911992303509,11.8851807707588,12.340091549443,14.1651006431137,12.462906588824,..,..,..,..,..
CO2 emissions (metric tons per capita),EN.ATM.CO2E.PC,Fiji,FJI,1.11735406060889,1.03995531475723,1.42019706496026,1.26133564344854,1.22506181587827,1.33020720695742,1.35007092133099,..,..,..,..,..
CO2 emissions (metric tons per capita),EN.ATM.CO2E.PC,Finland,FIN,10.3771689611267,10.1284741400511,11.5752816522205,10.5444747406961,9.07543335566445,8.68178012315563,8.66072124349448,..,..,..,..,..
CO2 emissions (metric tons per capita),EN.ATM.CO2E.PC,France,FRA,6.45122327633513,5.94666546275395,5.42898086189895,5.07791110203759,5.07506234140888,5.06217196411801,4.57318159541951,..,..,..,..,..
CO2 emissions (metric tons per capita),EN.ATM.CO2E.PC,French Polynesia,PYF,2.18290187839224,2.36152081965715,3.22034865174232,3.10950772885864,3.02631989828921,3.03856056346364,2.9556798733921,..,..,..,..,..
CO2 emissions (metric tons per capita),EN.ATM.CO2E.PC,Gabon,GAB,4.73877394974976,3.82115992054447,2.96224709692514,2.95164946709525,2.91736669863438,2.9060394447988,2.75638178150547,..,..,..,..,..
CO2 emissions (metric tons per capita),EN.ATM.CO2E.PC,"Gambia, The",GMB,0.184195572801391,0.186452485878836,0.241304352675335,0.242066242566203,0.238690485251791,0.220351161652606,0.253640981758284,..,..,..,..,..
CO2 emissions (metric tons per capita),EN.ATM.CO2E.PC,Georgia,GEO,..,1.11256641005648,1.6675686845653,2.12223697909803,2.26380242400253,2.1137931090135,2.41646049619644,..,..,..,..,..
CO2 emissions (metric tons per capita),EN.ATM.CO2E.PC,Germany,DEU,..,10.0956398829225,9.27963401169499,9.1248592104965,9.19929975724339,9.39062341958994,8.88937039483839,..,..,..,..,..
CO2 emissions (metric tons per capita),EN.ATM.CO2E.PC,Ghana,GHA,0.258395412202723,0.326207374545461,0.401777969225435,0.387243552096664,0.456885977004013,0.549478567097377,0.531371737898168,..,..,..,..,..
CO2 emissions (metric tons per capita),EN.ATM.CO2E.PC,Gibraltar,GIB,4.90661131505815,10.7377481738907,13.8665773410749,13.4190467690111,13.7324496225406,14.5844117297875,15.6574647887324,..,..,..,..,..
CO2 emissions (metric tons per capita),EN.ATM.CO2E.PC,Greece,GRC,7.28452164170849,8.47843382003456,7.54018386811447,7.18976291454789,7.24700735925025,6.33661458954141,6.18033726778447,..,..,..,..,..
CO2 emissions (metric tons per capita),EN.ATM.CO2E.PC,Greenland,GRL,9.95893884892086,9.46112099644128,11.6637729549249,12.4403410089647,10.005016722408,9.80325053555937,8.98918198774314,..,..,..,..,..
CO2 emissions (metric tons per capita),EN.ATM.CO2E.PC,Grenada,GRD,1.10393331326364,1.85430746939212,2.45081095328194,2.36921794823776,2.52552910299127,2.81372839049644,2.22238342730161,..,..,..,..,..
CO2 emissions (metric tons per capita),EN.ATM.CO2E.PC,Guam,GUM,..,..,..,..,..,..,..,..,..,..,..,..
CO2 emissions (metric tons per capita),EN.ATM.CO2E.PC,Guatemala,GTM,0.549031915907629,0.85106743835994,0.797292859116729,0.791841059113562,0.784030453458232,0.874202518738834,1.1510008356966,..,..,..,..,..
CO2 emissions (metric tons per capita),EN.ATM.CO2E.PC,Guinea,GIN,0.158172738840508,0.199353212640142,0.2554479043533,0.266742837247952,0.242354578644125,0.211075838098709,0.219671872697791,..,..,..,..,..
CO2 emissions (metric tons per capita),EN.ATM.CO2E.PC,Guinea-Bissau,GNB,0.176720898303121,0.122100955547361,0.156544828940516,0.157191765265143,0.157648791666433,0.155734208924943,0.160335468516147,..,..,..,..,..
CO2 emissions (metric tons per capita),EN.ATM.CO2E.PC,Guyana,GUY,1.52440371366417,2.15586000013392,2.29482304025961,2.36980803906238,2.64078718663911,2.54999901222861,2.63239277948073,..,..,..,..,..
CO2 emissions (metric tons per capita),EN.ATM.CO2E.PC,Haiti,HTI,0.141200443256151,0.161604720145996,0.213769340262583,0.219649971486052,0.225723617271799,0.231288109913657,0.271140186830838,..,..,..,..,..
CO2 emissions (metric tons per capita),EN.ATM.CO2E.PC,Honduras,HND,0.523190811944295,0.76524710818709,0.958912385617261,1.05590866571761,1.03974902007258,1.03026679143006,1.05764802292736,..,..,..,..,..
CO2 emissions (metric tons per capita),EN.ATM.CO2E.PC,"Hong Kong SAR, China",HKG,4.79162380576738,6.06746826706677,5.79112653398252,6.193079501103,6.07328764632662,6.26907896752984,6.39360052562418,..,..,..,..,..
CO2 emissions (metric tons per capita),EN.ATM.CO2E.PC,Hungary,HUN,6.71365062307764,5.46729669489807,5.02231164868321,4.79790000267757,4.4941289440849,4.25965983098088,4.2655749757664,..,..,..,..,..
CO2 emissions (metric tons per capita),EN.ATM.CO2E.PC,Iceland,ISL,7.84266519115004,7.69378211624971,6.16852858593703,5.89682897929244,5.61399181830654,5.8669462942143,6.05965740746397,..,..,..,..,..
CO2 emissions (metric tons per capita),EN.ATM.CO2E.PC,India,IND,0.709000751442441,0.976601686435581,1.39327329120641,1.47308087826488,1.59466840041331,1.58860010420502,1.72767050665838,..,..,..,..,..
CO2 emissions (metric tons per capita),EN.ATM.CO2E.PC,Indonesia,IDN,0.824448069167459,1.24539824992904,1.77295139151422,2.46277150275409,2.56418886541464,1.94683915145255,1.81937838004494,..,..,..,..,..
CO2 emissions (metric tons per capita),EN.ATM.CO2E.PC,"Iran, Islamic Rep.",IRN,3.73386416902876,5.67232331208659,7.76859435887758,7.89249315026058,8.09848283810738,8.10358603206511,8.38410110077933,..,..,..,..,..
CO2 emissions (metric tons per capita),EN.ATM.CO2E.PC,Iraq,IRQ,2.73796960844103,3.08309351790833,3.77229582862954,4.37374245328768,4.7890612518133,4.99158936033212,4.89491703042353,..,..,..,..,..
CO2 emissions (metric tons per capita),EN.ATM.CO2E.PC,Ireland,IRL,8.88372281638965,10.8347426425178,8.78361393417548,7.77982216046693,7.73815559101326,7.53811029677652,7.31393980771791,..,..,..,..,..
CO2 emissions (metric tons per capita),EN.ATM.CO2E.PC,Isle of Man,IMN,..,..,..,..,..,..,..,..,..,..,..,..
CO2 emissions (metric tons per capita),EN.ATM.CO2E.PC,Israel,ISR,7.7888339055794,9.58177945619335,9.03522325410567,8.90188827937881,9.54796776436382,8.32178547056269,7.86318134790706,..,..,..,..,..
CO2 emissions (metric tons per capita),EN.ATM.CO2E.PC,Italy,ITA,7.36170458207832,7.912673166227,6.83837457020099,6.70255761383033,6.20541385845015,5.73294187855659,5.27086678640296,..,..,..,..,..
CO2 emissions (metric tons per capita),EN.ATM.CO2E.PC,Jamaica,JAM,3.11252503196405,3.88289943010531,2.59648954263715,2.78081331838132,2.62561520717546,2.83102232511249,2.5814458863859,..,..,..,..,..
CO2 emissions (metric tons per capita),EN.ATM.CO2E.PC,Japan,JPN,8.87329283534488,9.62235162366075,9.14831603810416,9.31742666604085,9.63862828980874,9.7808150653223,9.53870610327163,..,..,..,..,..
CO2 emissions (metric tons per capita),EN.ATM.CO2E.PC,Jordan,JOR,2.9174424898132,3.02738197982896,2.91681859726981,2.82760440869404,3.02120982756865,2.86244304858211,2.96523830754741,..,..,..,..,..
CO2 emissions (metric tons per capita),EN.ATM.CO2E.PC,Kazakhstan,KAZ,..,7.93485418136683,15.2279873289044,15.646296858992,14.4694178907699,15.4293165175178,14.3631697418223,..,..,..,..,..
CO2 emissions (metric tons per capita),EN.ATM.CO2E.PC,Kenya,KEN,0.245449919258841,0.325921832734926,0.289656059778815,0.311682104259095,0.282239705967583,0.292909589476372,0.305923721896161,..,..,..,..,..
CO2 emissions (metric tons per capita),EN.ATM.CO2E.PC,Kiribati,KIR,0.303895027624309,0.347599412294421,0.605662265489133,0.595246734397678,0.586058099088089,0.577801464454537,0.569873207119416,..,..,..,..,..
CO2 emissions (metric tons per capita),EN.ATM.CO2E.PC,"Korea, Dem. People’s Rep.",PRK,..,3.03815129916929,2.70698675896486,1.94679542348972,1.97806110591142,1.444473789476,1.61737110336155,..,..,..,..,..
CO2 emissions (metric tons per capita),EN.ATM.CO2E.PC,"Korea, Rep.",KOR,5.76037425211894,9.52093176005307,11.4363166269633,11.8029687340986,11.6328245622552,11.7492008400819,11.5703454093401,..,..,..,..,..
CO2 emissions (metric tons per capita),EN.ATM.CO2E.PC,Kosovo,XKX,..,..,..,..,..,..,..,..,..,..,..,..
CO2 emissions (metric tons per capita),EN.ATM.CO2E.PC,Kuwait,KWT,24.3399823608916,26.189232628062,29.9560902093798,28.7335492383351,30.5582147081404,27.8884660124354,25.8492292753449,..,..,..,..,..
CO2 emissions (metric tons per capita),EN.ATM.CO2E.PC,Kyrgyz Republic,KGZ,..,0.946245304589254,1.1718730152903,1.38844086606463,1.80694838778713,1.7207895657039,1.64639533887413,..,..,..,..,..
CO2 emissions (metric tons per capita),EN.ATM.CO2E.PC,Lao PDR,LAO,0.0499442053393799,0.176334504198208,0.262298883130786,0.255921835878219,0.263451485213041,0.241054383040446,0.29436488328788,..,..,..,..,..
CO2 emissions (metric tons per capita),EN.ATM.CO2E.PC,Latvia,LVA,..,2.68262296466812,3.84959345523717,3.54111333202894,3.47174754795094,3.5182409036458,3.49819288166911,..,..,..,..,..
CO2 emissions (metric tons per capita),EN.ATM.CO2E.PC,Lebanon,LBN,2.93041422111105,3.96780298003163,4.04749487236277,3.92967649384133,4.08633681156762,3.81789230451114,3.84359823135183,..,..,..,..,..
CO2 emissions (metric tons per capita),EN.ATM.CO2E.PC,Lesotho,LSO,0.865230577075117,0.91097567694672,1.14112481527936,1.16390215127656,1.19382825721219,1.20032792396818,1.20771572600477,..,..,..,..,..
CO2 emissions (metric tons per capita),EN.ATM.CO2E.PC,Liberia,LBR,0.227872376093014,0.148046871708743,0.203546527225985,0.221803022469765,0.24826998550896,0.225285252995645,0.214493388584254,..,..,..,..,..
CO2 emissions (metric tons per capita),EN.ATM.CO2E.PC,Libya,LBY,8.2900203553979,8.79331363777277,9.99752632564888,6.35502147359902,8.38146426440759,8.9024132964599,8.958794329552,..,..,..,..,..
CO2 emissions (metric tons per capita),EN.ATM.CO2E.PC,Liechtenstein,LIE,..,..,1.52817136189365,1.31350398148403,1.30195275160453,1.38999296041588,1.18217231281734,..,..,..,..,..
CO2 emissions (metric tons per capita),EN.ATM.CO2E.PC,Lithuania,LTU,..,3.47572906808217,4.34861630293916,4.55330131121176,4.62950967158482,4.27365723711993,4.37809012309851,..,..,..,..,..
CO2 emissions (metric tons per capita),EN.ATM.CO2E.PC,Luxembourg,LUX,26.1976587665314,18.8855122622049,21.6351358015437,21.1029696323119,20.0842194874808,18.4983197143698,17.3621213728095,..,..,..,..,..
CO2 emissions (metric tons per capita),EN.ATM.CO2E.PC,"Macao SAR, China",MAC,3.00776596239762,3.81459481698622,2.61627330138847,2.62959486740059,2.32747380943516,2.0450835856259,2.17457235415311,..,..,..,..,..
CO2 emissions (metric tons per capita),EN.ATM.CO2E.PC,Madagascar,MDG,0.0818849083335941,0.118846962409508,0.0925780695964946,0.107595178009606,0.12110303288982,0.135748253808274,0.130420845169797,..,..,..,..,..
CO2 emissions (metric tons per capita),EN.ATM.CO2E.PC,Malawi,MWI,0.0795436227337977,0.0779529881265698,0.0786887573065911,0.0789176020069894,0.0712154224423803,0.0773254119239973,0.0783395970665838,..,..,..,..,..
CO2 emissions (metric tons per capita),EN.ATM.CO2E.PC,Malaysia,MYS,3.13884433924591,5.42091501357427,7.74517590466688,7.69276399338172,7.5239444644568,8.02577373847224,8.13021031314655,..,..,..,..,..
CO2 emissions (metric tons per capita),EN.ATM.CO2E.PC,Maldives,MDV,0.772318267774402,1.61433152706891,2.55673522286689,2.59247296285102,2.79707328370721,2.62941387366967,3.06837235497627,..,..,..,..,..
CO2 emissions (metric tons per capita),EN.ATM.CO2E.PC,Mali,MLI,0.0499064309892895,0.0750387911326463,0.0640838845364316,0.0673620722583019,0.0621894966794641,0.0624175373121626,0.0833693550692031,..,..,..,..,..
CO2 emissions (metric tons per capita),EN.ATM.CO2E.PC,Malta,MLT,6.09837930937121,5.29246296339022,6.17494957877773,6.10479546830407,6.3819007304275,5.49231747999258,5.40061395717027,..,..,..,..,..
CO2 emissions (metric tons per capita),EN.ATM.CO2E.PC,Marshall Islands,MHL,1.00846184764443,1.51728961834768,1.82159457829188,1.81627779448444,1.81032142038542,1.80329481190066,1.7956942234037,..,..,..,..,..
CO2 emissions (metric tons per capita),EN.ATM.CO2E.PC,Mauritania,MRT,0.445228589433656,0.446137755069065,0.640167477773851,0.665402951330611,0.716273929909021,0.699300640682081,0.689388119146373,..,..,..,..,..
CO2 emissions (metric tons per capita),EN.ATM.CO2E.PC,Mauritius,MUS,1.38191117092867,2.2677893927994,3.13208253358925,3.12999878633412,3.15928885038563,3.23390958429369,3.35311047207863,..,..,..,..,..
CO2 emissions (metric tons per capita),EN.ATM.CO2E.PC,Mexico,MEX,3.79337301829529,4.02814463460484,4.06956041627212,4.18710449457257,4.23217530750914,4.12649965608452,3.99044614866763,..,..,..,..,..
CO2 emissions (metric tons per capita),EN.ATM.CO2E.PC,"Micronesia, Fed. Sts.",FSM,..,1.16085361538891,1.1046146670424,1.16975350410826,1.29828909344918,1.35012178313162,1.39927963814381,..,..,..,..,..
CO2 emissions (metric tons per capita),EN.ATM.CO2E.PC,Moldova,MDA,..,0.965214232804117,1.38463017732791,1.41530275680859,1.38355238446543,1.40453233128176,1.38682914196587,..,..,..,..,..
CO2 emissions (metric tons per capita),EN.ATM.CO2E.PC,Monaco,MCO,..,..,..,..,..,..,..,..,..,..,..,..
CO2 emissions (metric tons per capita),EN.ATM.CO2E.PC,Mongolia,MNG,4.57337218911748,3.13101386575057,5.08141598061102,7.76058183010018,9.28466502094559,13.4474854534956,7.08802567796829,..,..,..,..,..
CO2 emissions (metric tons per capita),EN.ATM.CO2E.PC,Montenegro,MNE,..,..,4.16766436131399,4.14554758345308,3.76389822124038,3.61855387978564,3.5560717904183,..,..,..,..,..
CO2 emissions (metric tons per capita),EN.ATM.CO2E.PC,Morocco,MAR,0.948994298570325,1.17751823238705,1.73013471160984,1.75968034140843,1.88711754665753,1.75237993773404,1.7507945564544,..,..,..,..,..
CO2 emissions (metric tons per capita),EN.ATM.CO2E.PC,Mozambique,MOZ,0.0787764685663493,0.0761891125680452,0.116251552063623,0.13326283131439,0.125514265415333,0.157234663727261,0.320578016654618,..,..,..,..,..
CO2 emissions (metric tons per capita),EN.ATM.CO2E.PC,Myanmar,MMR,0.103440218105639,0.21592426287146,0.24733732565351,0.280397343707268,0.215325359401302,0.248014679190382,0.413758590222221,..,..,..,..,..
CO2 emissions (metric tons per capita),EN.ATM.CO2E.PC,Namibia,NAM,0.0281505054417425,0.915436614098857,1.46411820617932,1.31261774348878,1.54212943050432,1.17717807397325,1.65169281658111,..,..,..,..,..
CO2 emissions (metric tons per capita),EN.ATM.CO2E.PC,Nauru,NRU,13.1170962651236,8.15913708039083,4.39820089955022,4.01083822213384,3.92421441774492,4.06653728860549,4.02185100818358,..,..,..,..,..
CO2 emissions (metric tons per capita),EN.ATM.CO2E.PC,Nepal,NPL,0.0335559354807109,0.128201198691289,0.187197027883985,0.20463050835649,0.21697773037891,0.246574529237155,0.298463302719902,..,..,..,..,..
CO2 emissions (metric tons per capita),EN.ATM.CO2E.PC,Netherlands,NLD,10.5944750062034,10.8947262797751,11.0170708560989,10.4335386040941,10.1647588338308,10.3100627858175,9.92013807523839,..,..,..,..,..
CO2 emissions (metric tons per capita),EN.ATM.CO2E.PC,New Caledonia,NCL,9.26947495304244,10.4732120245744,14.1834714714715,14.3450560251622,14.0167181467181,16.092239711739,16.005931729155,..,..,..,..,..
CO2 emissions (metric tons per capita),EN.ATM.CO2E.PC,New Zealand,NZL,7.07123761186858,8.54939419861576,7.3050058611258,7.18594822080292,7.74727683128786,7.53195740753247,7.68657582544293,..,..,..,..,..
CO2 emissions (metric tons per capita),EN.ATM.CO2E.PC,Nicaragua,NIC,0.610663784308078,0.742181467981193,0.778851025872822,0.826824454319207,0.772319251098951,0.750644376023307,0.791576322786616,..,..,..,..,..
CO2 emissions (metric tons per capita),EN.ATM.CO2E.PC,Niger,NER,0.091371293242673,0.0614858134676461,0.0712729724353553,0.0775619361555794,0.104888056554156,0.104832266956978,0.110542757005569,..,..,..,..,..
CO2 emissions (metric tons per capita),EN.ATM.CO2E.PC,Nigeria,NGA,0.411674765222405,0.621972950639026,0.57738468833534,0.587782870719058,0.589031156344052,0.571337668566547,0.545794084565745,..,..,..,..,..
CO2 emissions (metric tons per capita),EN.ATM.CO2E.PC,North Macedonia,MKD,..,5.92899417589476,4.15444616202606,4.53489985703167,4.32237867826781,3.7799261777197,3.61445103536235,..,..,..,..,..
CO2 emissions (metric tons per capita),EN.ATM.CO2E.PC,Northern Mariana Islands,MNP,..,..,..,..,..,..,..,..,..,..,..,..
CO2 emissions (metric tons per capita),EN.ATM.CO2E.PC,Norway,NOR,7.42914808133872,8.83401570307687,12.2934544997885,9.12476721592671,9.94098023481974,11.4501188375594,9.27094513154166,..,..,..,..,..
CO2 emissions (metric tons per capita),EN.ATM.CO2E.PC,Oman,OMN,6.2831255059567,9.65428468504696,15.5906644694575,16.6188197992807,16.9122986115896,16.3031673619218,15.1887951113164,..,..,..,..,..
CO2 emissions (metric tons per capita),EN.ATM.CO2E.PC,Pakistan,PAK,0.636942779415127,0.747833829215674,0.899517870569405,0.883365326975709,0.873000717235915,0.859160807851102,0.851472804393805,..,..,..,..,..
CO2 emissions (metric tons per capita),EN.ATM.CO2E.PC,Palau,PLW,15.5856023376278,13.0518712378958,14.0920634920635,14.2588334742181,14.3437074829932,14.5796887424742,14.7711902870759,..,..,..,..,..
CO2 emissions (metric tons per capita),EN.ATM.CO2E.PC,Panama,PAN,1.12045503201809,1.91074794543693,2.51567949703063,2.72466324545398,2.6822048552176,2.79463357108981,2.25585475666538,..,..,..,..,..
CO2 emissions (metric tons per capita),EN.ATM.CO2E.PC,Papua New Guinea,PNG,0.463952057253297,0.455899066725996,0.65158722917576,0.713063221005862,0.665547591259968,0.7942896718303,0.795074226118891,..,..,..,..,..
CO2 emissions (metric tons per capita),EN.ATM.CO2E.PC,Paraguay,PRY,0.51227028364487,0.693004453523359,0.81579924520088,0.840043757665012,0.822882056437798,0.834756314478833,0.864029477268519,..,..,..,..,..
CO2 emissions (metric tons per capita),EN.ATM.CO2E.PC,Peru,PER,0.954654009098548,1.1450044641062,1.98410323886096,1.69601919306645,1.86638430452003,1.91959048010601,2.05198435817931,..,..,..,..,..
CO2 emissions (metric tons per capita),EN.ATM.CO2E.PC,Philippines,PHL,0.674745214326936,0.939932650573128,0.903181400916366,0.894591011344799,0.938207478743659,0.992488921383575,1.05114222978493,..,..,..,..,..
CO2 emissions (metric tons per capita),EN.ATM.CO2E.PC,Poland,POL,9.66717214041947,7.82279832871167,8.31337682505654,8.32817587460663,7.87983006352283,7.94628250601022,7.51715158489872,..,..,..,..,..
CO2 emissions (metric tons per capita),EN.ATM.CO2E.PC,Portugal,PRT,4.23919892363364,6.09640338514531,4.55275264586545,4.51082721765256,4.37605313022238,4.3440293115954,4.33155402784831,..,..,..,..,..
CO2 emissions (metric tons per capita),EN.ATM.CO2E.PC,Puerto Rico,PRI,..,..,..,..,..,..,..,..,..,..,..,..
CO2 emissions (metric tons per capita),EN.ATM.CO2E.PC,Qatar,QAT,24.7224037221959,58.619464679949,39.0597082302849,39.509205151014,42.8603753789717,36.3879175236907,43.8573079516167,..,..,..,..,..
CO2 emissions (metric tons per capita),EN.ATM.CO2E.PC,Romania,ROU,7.50316334893339,4.04051865503903,3.92221356080157,4.21292622102324,4.07431545512808,3.55016707872764,3.51615369125659,..,..,..,..,..
CO2 emissions (metric tons per capita),EN.ATM.CO2E.PC,Russian Federation,RUS,..,10.6271205332605,11.6943481245069,12.3348810039402,12.7849790249662,12.3935564747819,11.8575277737052,..,..,..,..,..
CO2 emissions (metric tons per capita),EN.ATM.CO2E.PC,Rwanda,RWA,0.0744580581768233,0.066557755473153,0.0588073635930975,0.064481264616867,0.0698663030283957,0.0742792217540087,0.0757642235602309,..,..,..,..,..
CO2 emissions (metric tons per capita),EN.ATM.CO2E.PC,Samoa,WSM,0.630676338888104,0.819774840359063,1.00574351031735,1.07583120409241,1.04722668810289,1.0382818521684,1.03015799522425,..,..,..,..,..
CO2 emissions (metric tons per capita),EN.ATM.CO2E.PC,San Marino,SMR,..,..,..,..,..,..,..,..,..,..,..,..
CO2 emissions (metric tons per capita),EN.ATM.CO2E.PC,Sao Tome and Principe,STP,0.39989430328247,0.335092997427282,0.548918617737885,0.556437103032668,0.603368293666801,0.591799549162619,0.580793656470492,..,..,..,..,..
CO2 emissions (metric tons per capita),EN.ATM.CO2E.PC,Saudi Arabia,SAU,11.4454653058421,14.3698016385432,18.9082484700578,17.6837298844953,19.3736599254191,18.0034004139021,19.4406664826471,..,..,..,..,..
CO2 emissions (metric tons per capita),EN.ATM.CO2E.PC,Senegal,SEN,0.422910731650994,0.401966209737884,0.610870294304815,0.642029816456571,0.590463461734902,0.611148042216099,0.624760004263926,..,..,..,..,..
CO2 emissions (metric tons per capita),EN.ATM.CO2E.PC,Serbia,SRB,..,..,6.30257798326694,6.80367714071925,6.12060018249562,6.26511069310281,5.28252191688301,..,..,..,..,..
CO2 emissions (metric tons per capita),EN.ATM.CO2E.PC,Seychelles,SYC,2.16304832606788,7.05096695467824,4.9427091455943,3.90012694273853,4.98329615075366,4.48443006592625,5.41867796276229,..,..,..,..,..
CO2 emissions (metric tons per capita),EN.ATM.CO2E.PC,Sierra Leone,SLE,0.112902284894399,0.0927833814766965,0.113171356096685,0.13688589781876,0.153506825466985,0.173627399846736,0.186560087693797,..,..,..,..,..
CO2 emissions (metric tons per capita),EN.ATM.CO2E.PC,Singapore,SGP,14.6023795490317,12.1666243367801,10.9604087826578,8.72379741990645,6.84675846508862,10.3119819334926,10.306331909983,..,..,..,..,..
CO2 emissions (metric tons per capita),EN.ATM.CO2E.PC,Sint Maarten (Dutch part),SXM,..,..,..,..,20.1134526558891,19.5335591553528,19.4613241342709,..,..,..,..,..
CO2 emissions (metric tons per capita),EN.ATM.CO2E.PC,Slovak Republic,SVK,..,6.65932948826437,6.72195956247584,6.39539628896351,6.05902290100616,6.11280355961594,5.66158132774424,..,..,..,..,..
CO2 emissions (metric tons per capita),EN.ATM.CO2E.PC,Slovenia,SVN,..,7.23840366026874,7.48585436860503,7.35063762791407,7.18548104448903,6.8695513926774,6.21368684468327,..,..,..,..,..
CO2 emissions (metric tons per capita),EN.ATM.CO2E.PC,Solomon Islands,SLB,0.470330205921774,0.364336257451655,0.375132847473104,0.365670029417142,0.356106491339126,0.353006554823352,0.343539796177346,..,..,..,..,..
CO2 emissions (metric tons per capita),EN.ATM.CO2E.PC,Somalia,SOM,0.101507357968591,0.0541437384457208,0.0508464753435416,0.0488881897031924,0.0478724015002151,0.0465964252410457,0.045347230872012,..,..,..,..,..
CO2 emissions (metric tons per capita),EN.ATM.CO2E.PC,South Africa,ZAF,8.5135999885219,8.42082992088456,9.25668097000049,9.04893636225955,8.87252338716325,8.68659025060442,8.97906234758848,..,..,..,..,..
CO2 emissions (metric tons per capita),EN.ATM.CO2E.PC,South Sudan,SSD,..,..,..,..,0.131616320008005,0.139880247639892,0.141748231600483,..,..,..,..,..
CO2 emissions (metric tons per capita),EN.ATM.CO2E.PC,Spain,ESP,5.62419000722509,7.25782434589112,5.81641636625128,5.78801845772827,5.66093880333453,5.08439835268284,5.03382448723757,..,..,..,..,..
CO2 emissions (metric tons per capita),EN.ATM.CO2E.PC,Sri Lanka,LKA,0.223290758801931,0.545238127064261,0.654610164962658,0.742076615779362,0.784926511627907,0.75246091814428,0.885247473289056,..,..,..,..,..
CO2 emissions (metric tons per capita),EN.ATM.CO2E.PC,St. Kitts and Nevis,KNA,2.64147147221739,3.91044606797659,4.48873837114412,4.67209335247841,4.41036743039269,4.44431861079653,4.54998621341631,..,..,..,..,..
CO2 emissions (metric tons per capita),EN.ATM.CO2E.PC,St. Lucia,LCA,1.16901898275612,2.10573665371437,2.31708648074217,2.31871781433715,2.3042525729425,2.29299825928242,2.2829283887468,..,..,..,..,..
CO2 emissions (metric tons per capita),EN.ATM.CO2E.PC,St. Martin (French part),MAF,..,..,..,..,..,..,..,..,..,..,..,..
CO2 emissions (metric tons per capita),EN.ATM.CO2E.PC,St. Vincent and the Grenadines,VCT,0.7505675263295,1.360869887924,2.03242344464459,1.82815096569297,2.33340711025038,1.92427869124119,1.92005401383416,..,..,..,..,..
CO2 emissions (metric tons per capita),EN.ATM.CO2E.PC,Sudan,SDN,0.202623461089627,0.159133713745191,0.345245385884236,0.330142236762997,0.300706838141128,0.309687394590696,0.299732598319775,..,..,..,..,..
CO2 emissions (metric tons per capita),EN.ATM.CO2E.PC,Suriname,SUR,4.37142370572207,4.66405704226997,4.53930123164207,3.67947733375189,4.1734741198533,3.50424362907484,3.59891229103896,..,..,..,..,..
CO2 emissions (metric tons per capita),EN.ATM.CO2E.PC,Sweden,SWE,6.06936831940328,5.56243008285854,5.54734805226545,5.47495712076762,4.94230082776452,4.67142078453361,4.47818217821374,..,..,..,..,..
CO2 emissions (metric tons per capita),EN.ATM.CO2E.PC,Switzerland,CHE,6.34508516765421,5.43548498451474,4.98342894466888,4.67203836308538,4.72357428746104,4.97283587573087,4.31156299409097,..,..,..,..,..
CO2 emissions (metric tons per capita),EN.ATM.CO2E.PC,Syrian Arab Republic,SYR,3.00167786542544,3.11019716957954,2.88381586281287,2.69924891023398,2.18808738111373,1.86062444796269,1.64053906266363,..,..,..,..,..
CO2 emissions (metric tons per capita),EN.ATM.CO2E.PC,Tajikistan,TJK,..,0.359837081009552,0.338084867086803,0.30536459192648,0.372528440278431,0.431772052027794,0.628730158480124,..,..,..,..,..
CO2 emissions (metric tons per capita),EN.ATM.CO2E.PC,Tanzania,TZA,0.0899150903364149,0.0791434596309522,0.16025260152853,0.177194603118344,0.202862862853077,0.230538234330879,0.231426985468443,..,..,..,..,..
CO2 emissions (metric tons per capita),EN.ATM.CO2E.PC,Thailand,THA,1.60553100129484,2.87947900582155,4.19564218352584,4.12210656943764,4.37228240179467,4.40371476195856,4.62037714609842,..,..,..,..,..
CO2 emissions (metric tons per capita),EN.ATM.CO2E.PC,Timor-Leste,TLS,..,..,0.214616427820905,0.220714889534304,0.258924583890118,0.381550253837917,0.399696508054373,..,..,..,..,..
CO2 emissions (metric tons per capita),EN.ATM.CO2E.PC,Togo,TGO,0.205000805444807,0.276268468739961,0.411144811193459,0.373596921622882,0.367035258016651,0.382269108998046,0.3673166295811,..,..,..,..,..
CO2 emissions (metric tons per capita),EN.ATM.CO2E.PC,Tonga,TON,0.810011675730259,0.973145662580507,1.12845960033081,0.991444738417566,1.03509933130226,1.11702106752614,1.19779665043354,..,..,..,..,..
CO2 emissions (metric tons per capita),EN.ATM.CO2E.PC,Trinidad and Tobago,TTO,13.9428858519584,18.8131717322218,36.0916555170474,35.1255094755339,33.7737119622967,34.3810031764793,33.966414453933,..,..,..,..,..
CO2 emissions (metric tons per capita),EN.ATM.CO2E.PC,Tunisia,TUN,1.60961024427552,2.05213151565405,2.60080361108781,2.42239086640327,2.48951627371323,2.5260329385204,2.60593240600076,..,..,..,..,..
CO2 emissions (metric tons per capita),EN.ATM.CO2E.PC,Turkey,TUR,2.70500428769387,3.41794199745814,4.12021059137704,4.36851337735326,4.41456543430208,4.27732996504451,4.47977349568748,..,..,..,..,..
CO2 emissions (metric tons per capita),EN.ATM.CO2E.PC,Turkmenistan,TKM,..,8.31221733283763,11.2614787310852,12.0731192085171,12.3147548358929,12.4359056159884,12.5170961201011,..,..,..,..,..
CO2 emissions (metric tons per capita),EN.ATM.CO2E.PC,Turks and Caicos Islands,TCA,2.42226075468582,3.4553164054751,5.83845682792407,5.71303592294095,5.81277520108026,5.70147706659756,5.80598829483446,..,..,..,..,..
CO2 emissions (metric tons per capita),EN.ATM.CO2E.PC,Tuvalu,TUV,0.822843038258723,0.780711092186502,0.696486229819563,0.689739490266153,1.02439705745414,1.01326333241227,1.00264309150565,..,..,..,..,..
CO2 emissions (metric tons per capita),EN.ATM.CO2E.PC,Uganda,UGA,0.043739302419814,0.0604701733247437,0.120883274099335,0.127392876267974,0.117779745160532,0.136426458582188,0.141664527352892,..,..,..,..,..
CO2 emissions (metric tons per capita),EN.ATM.CO2E.PC,Ukraine,UKR,..,6.52561877529799,6.6413496850931,6.26596231137638,6.4876028056754,5.97664184780697,5.02074706440171,..,..,..,..,..
CO2 emissions (metric tons per capita),EN.ATM.CO2E.PC,United Arab Emirates,ARE,28.4446241369654,35.9157642701389,18.8085197312558,18.4916168135184,19.2949203837054,18.5592361743048,22.9396063130991,..,..,..,..,..
CO2 emissions (metric tons per capita),EN.ATM.CO2E.PC,United Kingdom,GBR,9.71088167805014,9.19954923303155,7.85783648614987,7.07929762567232,7.35589827677421,7.14584435876957,6.49744049045117,..,..,..,..,..
CO2 emissions (metric tons per capita),EN.ATM.CO2E.PC,United States,USA,19.3227511807806,20.1787505069199,17.4428617133922,16.9769572829045,16.310471097693,16.3234767932125,16.502837239406,..,..,..,..,..
CO2 emissions (metric tons per capita),EN.ATM.CO2E.PC,Uruguay,URY,1.28420430788387,1.5983647494861,1.90157519107546,2.30430130124247,2.57310562318621,2.23843031250894,1.98424083514046,..,..,..,..,..
CO2 emissions (metric tons per capita),EN.ATM.CO2E.PC,Uzbekistan,UZB,..,4.94226223509558,3.64704888244685,3.87480091617416,3.88973319451208,3.41744243334039,3.42072274584901,..,..,..,..,..
CO2 emissions (metric tons per capita),EN.ATM.CO2E.PC,Vanuatu,VUT,0.450328505249944,0.455966308414246,0.512300443247774,0.544036133903146,0.455621064613485,0.414374500750093,0.583633965924938,..,..,..,..,..
CO2 emissions (metric tons per capita),EN.ATM.CO2E.PC,"Venezuela, RB",VEN,6.22240729926375,6.30041798997919,6.64806325189153,6.12089730645576,6.76939678975688,6.17528542833228,6.16473103431657,..,..,..,..,..
CO2 emissions (metric tons per capita),EN.ATM.CO2E.PC,Vietnam,VNM,0.31487430985387,0.671308552382385,1.62261892158516,1.71224064580119,1.5837081215802,1.62230762917809,1.81989397652576,..,..,..,..,..
CO2 emissions (metric tons per capita),EN.ATM.CO2E.PC,Virgin Islands (U.S.),VIR,..,..,..,..,..,..,..,..,..,..,..,..
CO2 emissions (metric tons per capita),EN.ATM.CO2E.PC,West Bank and Gaza,PSE,..,0.271057675624788,0.537532608888,0.578902679535801,0.552814348147914,0.598167688242572,..,..,..,..,..,..
CO2 emissions (metric tons per capita),EN.ATM.CO2E.PC,"Yemen, Rep.",YEM,0.819517056927361,0.841074756885376,1.01197481046631,0.826044242701109,0.762822752320929,1.01389988805473,0.878995611940061,..,..,..,..,..
CO2 emissions (metric tons per capita),EN.ATM.CO2E.PC,Zambia,ZMB,0.304334474535716,0.174972042860445,0.197823104892671,0.209457788964325,0.253506348132173,0.265078346543839,0.292412222455776,..,..,..,..,..
CO2 emissions (metric tons per capita),EN.ATM.CO2E.PC,Zimbabwe,ZWE,1.49950064323516,1.17187442268331,0.61252769492609,0.741686181725343,0.594151518578045,0.874563045359989,0.884721294332295,..,..,..,..,..
CO2 emissions (metric tons per capita),EN.ATM.CO2E.PC,Arab World,ARB,3.01695884106493,3.70385708074551,4.63681343868195,4.55946165497788,4.83777959400113,4.67492482250445,4.88698751329195,..,..,..,..,..
CO2 emissions (metric tons per capita),EN.ATM.CO2E.PC,Caribbean small states,CSS,5.25770549441187,6.52388022694456,9.29159743739107,9.152373544779,8.88821695923672,9.1323245919185,8.87121971551983,..,..,..,..,..
CO2 emissions (metric tons per capita),EN.ATM.CO2E.PC,Central Europe and the Baltics,CEB,9.01457630711816,6.60384328227738,6.82803356479057,6.86434946488299,6.50436699486502,6.3448382618131,6.14888253990517,..,..,..,..,..
CO2 emissions (metric tons per capita),EN.ATM.CO2E.PC,Early-demographic dividend,EAR,1.40506836192581,1.7132797428821,2.12064533604319,2.20252577427603,2.29763956763086,2.21307605608905,2.29821640857788,..,..,..,..,..
CO2 emissions (metric tons per capita),EN.ATM.CO2E.PC,East Asia & Pacific,EAS,2.58138662372631,3.19758951025401,5.70248124796186,6.19075271188979,6.30783541059883,6.33119087668809,6.29425627174206,..,..,..,..,..
CO2 emissions (metric tons per capita),EN.ATM.CO2E.PC,East Asia & Pacific (excluding high income),EAP,1.78437574971388,2.31068209285424,5.10673874338129,5.64237220116144,5.77394812651684,5.79115436227659,5.77612844555788,..,..,..,..,..
CO2 emissions (metric tons per capita),EN.ATM.CO2E.PC,East Asia & Pacific (IDA & IBRD countries),TEA,1.78075971464998,2.30151418066265,5.13718996780157,5.689106484114,5.82184499785056,5.8458720116998,5.82837164447171,..,..,..,..,..
CO2 emissions (metric tons per capita),EN.ATM.CO2E.PC,Euro area,EMU,..,8.20701362314346,7.42563414691982,7.1614699261963,6.9970969706692,6.84446208909459,6.47492085436996,..,..,..,..,..
CO2 emissions (metric tons per capita),EN.ATM.CO2E.PC,Europe & Central Asia,ECS,..,7.6069768469593,7.5440211538902,7.50097330996562,7.4738397231351,7.2895150635946,6.9159390223169,..,..,..,..,..
CO2 emissions (metric tons per capita),EN.ATM.CO2E.PC,Europe & Central Asia (excluding high income),ECA,..,6.86544426377662,7.55824556726223,7.88604745516617,8.00071165715014,7.73393729357247,7.42107333360326,..,..,..,..,..
CO2 emissions (metric tons per capita),EN.ATM.CO2E.PC,Europe & Central Asia (IDA & IBRD countries),TEC,..,6.92328804393116,7.59460570340844,7.8915478746908,7.95302984056867,7.71664246211377,7.39573050169203,..,..,..,..,..
CO2 emissions (metric tons per capita),EN.ATM.CO2E.PC,European Union,EUU,8.58397994841861,8.01273159131426,7.35630488154049,7.07946087828886,6.91780245749289,6.75382531002702,6.37914904858669,..,..,..,..,..
CO2 emissions (metric tons per capita),EN.ATM.CO2E.PC,Fragile and conflict affected situations,FCS,0.744641197381305,0.768791924618489,0.849298919866558,0.832929404841937,0.849363138829188,0.888268724114665,0.89593092409744,..,..,..,..,..
CO2 emissions (metric tons per capita),EN.ATM.CO2E.PC,Heavily indebted poor countries (HIPC),HPC,0.170287435715213,0.16337744928406,0.223297054727844,0.234882432498023,0.242895217003364,0.256993040412572,0.267777322424202,..,..,..,..,..
CO2 emissions (metric tons per capita),EN.ATM.CO2E.PC,High income,HIC,11.4025657851144,12.2145769481532,11.5052887456202,11.2555457725701,11.0796956766757,10.9988656373776,10.925831512793,..,..,..,..,..
CO2 emissions (metric tons per capita),EN.ATM.CO2E.PC,IBRD only,IBD,2.59711252591648,2.63928045276031,4.12883264550576,4.41742426448508,4.53164968928251,4.51031869972507,4.51846155794193,..,..,..,..,..
CO2 emissions (metric tons per capita),EN.ATM.CO2E.PC,IDA & IBRD total,IBT,2.18783219642905,2.18107372086744,3.27681087070592,3.49132096988402,3.56755878427992,3.54360324697317,3.53853213946077,..,..,..,..,..
CO2 emissions (metric tons per capita),EN.ATM.CO2E.PC,IDA blend,IDB,0.933550209998774,0.952517926918729,0.8918856130814,0.923117631695597,0.920894287182341,0.914726582413125,0.865592101118887,..,..,..,..,..
CO2 emissions (metric tons per capita),EN.ATM.CO2E.PC,IDA only,IDX,0.259826373737784,0.259242272758767,0.33637234853982,0.340079243618009,0.330128846737697,0.341076916433233,0.353659148531032,..,..,..,..,..
CO2 emissions (metric tons per capita),EN.ATM.CO2E.PC,IDA total,IDA,0.493331945058213,0.495873372552533,0.52525920764412,0.538623666949906,0.531527357561024,0.536796577114023,0.528406894842914,..,..,..,..,..
CO2 emissions (metric tons per capita),EN.ATM.CO2E.PC,Late-demographic dividend,LTE,3.37280402784025,3.4030874894436,6.08023439787658,6.55796774691647,6.70980343028793,6.77778726686876,6.75282959356326,..,..,..,..,..
CO2 emissions (metric tons per capita),EN.ATM.CO2E.PC,Latin America & Caribbean,LCN,2.29076385686509,2.60516469707019,2.93552718176235,2.96317561736923,3.06075117057878,3.0725815876603,3.10163910407089,..,..,..,..,..
CO2 emissions (metric tons per capita),EN.ATM.CO2E.PC,Latin America & Caribbean (excluding high income),LAC,2.24048239062799,2.50912167718617,2.79403755867857,2.80982849396703,2.91345930592052,2.92400533013629,2.96268220310426,..,..,..,..,..
CO2 emissions (metric tons per capita),EN.ATM.CO2E.PC,Latin America & the Caribbean (IDA & IBRD countries),TLA,2.24675581093273,2.58475223652567,2.89529897163751,2.92676111050326,3.02705250646639,3.04206465983138,3.07108458775194,..,..,..,..,..
CO2 emissions (metric tons per capita),EN.ATM.CO2E.PC,Least developed countries: UN classification,LDC,0.151482809281815,0.168904568644838,0.273284842971097,0.282797568318145,0.28270893757882,0.299216020835088,0.319277933525195,..,..,..,..,..
CO2 emissions (metric tons per capita),EN.ATM.CO2E.PC,Low & middle income,LMY,2.11581625331536,2.13059566499409,3.22939447125901,3.44058775932719,3.5210194781014,3.49437545068422,3.49408868065586,..,..,..,..,..
CO2 emissions (metric tons per capita),EN.ATM.CO2E.PC,Low income,LIC,0.403865944246558,0.390480374229643,0.383361368654197,0.342947302172,0.319280066864853,0.302395889606244,0.307958345273978,..,..,..,..,..
CO2 emissions (metric tons per capita),EN.ATM.CO2E.PC,Lower middle income,LMC,0.974921706798579,1.05069498128714,1.33107262199248,1.43521005478112,1.5013684102202,1.43166989477424,1.46521065443756,..,..,..,..,..
CO2 emissions (metric tons per capita),EN.ATM.CO2E.PC,Middle East & North Africa,MEA,3.59430496220592,4.67145163471214,5.88487739332196,5.83265420006711,6.1418891394127,5.96459900175003,6.20501036391517,..,..,..,..,..
CO2 emissions (metric tons per capita),EN.ATM.CO2E.PC,Middle East & North Africa (excluding high income),MNA,2.43465385597977,3.12368988209144,3.8509702227033,3.85640496815713,3.96270547395291,3.95142339253822,3.96503558201111,..,..,..,..,..
CO2 emissions (metric tons per capita),EN.ATM.CO2E.PC,Middle East & North Africa (IDA & IBRD countries),TMN,2.45476239161973,3.15385308856539,3.88910252111769,3.89440224015024,4.00250138105378,3.99079366648735,4.00480362152471,..,..,..,..,..
CO2 emissions (metric tons per capita),EN.ATM.CO2E.PC,Middle income,MIC,2.25934941459409,2.29646366479933,3.54539976752558,3.78909343097776,3.88591814093742,3.86283825495166,3.86673189186276,..,..,..,..,..
CO2 emissions (metric tons per capita),EN.ATM.CO2E.PC,North America,NAC,18.9603094908891,19.9053509556714,17.2710507881193,16.8425091952472,16.1689901615083,16.1636907229764,16.3668511421216,..,..,..,..,..
CO2 emissions (metric tons per capita),EN.ATM.CO2E.PC,Not classified,INX,..,..,..,..,..,..,..,..,..,..,..,..
CO2 emissions (metric tons per capita),EN.ATM.CO2E.PC,OECD members,OED,10.5624801904721,11.0802144305111,10.1838560893016,9.99048413039588,9.78094909803397,9.70883431229135,9.55063823247271,..,..,..,..,..
CO2 emissions (metric tons per capita),EN.ATM.CO2E.PC,Other small states,OSS,4.06848611361898,5.0322835531714,6.61876590774263,6.84884159752134,7.08519925144611,6.77480108239217,7.62789783009735,..,..,..,..,..
CO2 emissions (metric tons per capita),EN.ATM.CO2E.PC,Pacific island small states,PSS,1.0304766496712,0.962319078377458,1.09619921978542,1.0305165764266,1.00536252351559,1.04127997853753,1.06612774478568,..,..,..,..,..
CO2 emissions (metric tons per capita),EN.ATM.CO2E.PC,Post-demographic dividend,PST,11.6393228184134,12.0148781339913,11.0909003657906,10.8349434775869,10.6008440056589,10.5443247650825,10.3597894698665,..,..,..,..,..
CO2 emissions (metric tons per capita),EN.ATM.CO2E.PC,Pre-demographic dividend,PRE,0.336244993794689,0.391598769990413,0.471250539548996,0.509289816156197,0.528890358895068,0.541348940378099,0.54231560397955,..,..,..,..,..
CO2 emissions (metric tons per capita),EN.ATM.CO2E.PC,Small states,SST,4.20674189025781,5.09336992655337,6.80426097505957,6.93930106781269,7.05944973114997,6.87537360878012,7.46265256907943,..,..,..,..,..
CO2 emissions (metric tons per capita),EN.ATM.CO2E.PC,South Asia,SAS,0.626973926760251,0.849134552064127,1.20163462823425,1.26496189595621,1.35654512325731,1.35008778341748,1.45657274518659,..,..,..,..,..
CO2 emissions (metric tons per capita),EN.ATM.CO2E.PC,South Asia (IDA & IBRD),TSA,0.626973926760251,0.849134552064127,1.20163462823425,1.26496189595621,1.35654512325731,1.35008778341749,1.45657274518659,..,..,..,..,..
CO2 emissions (metric tons per capita),EN.ATM.CO2E.PC,Sub-Saharan Africa,SSF,0.861377287673,0.848494233485107,0.859137332987817,0.848531685655306,0.836362014684778,0.831468752771555,0.849177690461,..,..,..,..,..
CO2 emissions (metric tons per capita),EN.ATM.CO2E.PC,Sub-Saharan Africa (excluding high income),SSA,0.861203735566868,0.847736183790426,0.858717284878947,0.848235848024723,0.83596490905025,0.831122614464111,0.84874859980702,..,..,..,..,..
CO2 emissions (metric tons per capita),EN.ATM.CO2E.PC,Sub-Saharan Africa (IDA & IBRD countries),TSS,0.861377287673001,0.848494233485107,0.859137332987817,0.848531685655306,0.836362014684778,0.831468752771554,0.849177690461,..,..,..,..,..
CO2 emissions (metric tons per capita),EN.ATM.CO2E.PC,Upper middle income,UMC,3.42084607056537,3.52213738415476,5.92726154515199,6.3413851012758,6.49097274212427,6.53796746852235,6.52757182101923,..,..,..,..,..
CO2 emissions (metric tons per capita),EN.ATM.CO2E.PC,World,WLD,4.19389815309674,4.03752632568026,4.83498930990917,4.9753633591459,5.00506884539493,4.9975990151973,4.98070685188463,..,..,..,..,..
,,,,,,,,,,,,,,,
,,,,,,,,,,,,,,,
,,,,,,,,,,,,,,,
Data from database: World Development Indicators,,,,,,,,,,,,,,,
Last Updated: 02/27/2020,,,,,,,,,,,,,,,
